<!--$sitebuilder version="2.8.7" extra="Java(1.7.0_51)" md5="23aca9a4dd7771dae81294a6b8f925a9"$-->
<navbar name="navbar.nav" gap="20" columnLayout="0" textColor="669900" defaultFontFamily="Sandwich Paper Dark" defaultFontSize="30" defaultBold="true" defaultItalic="false" defaultUnderline="false" defaultActiveImage="%RemappedImageAsset:/sitebuilder/clipart/buttons/sets/green_apple/active.png" defaultInactiveImage="%RemappedImageAsset:/sitebuilder/clipart/buttons/sets/green_apple/inactive.png" editorType="0" dimension="440,30"  insets="0,0,0,0"><page name="&lt;span class=&quot;text&quot;&gt;&lt;b&gt;&lt;span style=&quot;font-size:30px;line-height:30px;&quot;&gt;Home&lt;br soft&gt;&lt;/span&gt;&lt;/b&gt;&lt;/span&gt;" valign="0" align="0" bold="true" italic="false" underline="false" file="%PageAssetImpl:/index.html" dimension="124,30" inactiveImage="%RemappedImageAsset:/sitebuilder/clipart/buttons/sets/green_apple/inactive.png" inactiveButton="%ImageAssetImpl:/sitebuilder/images/navbar-0-inactive-40231.png" activeImage="%RemappedImageAsset:/sitebuilder/clipart/buttons/sets/green_apple/active.png" activeButton="%ImageAssetImpl:/sitebuilder/images/navbar-0-active-40309.png" altText=""  insets="0,0,0,0"></page>
<page name="&lt;span class=&quot;text&quot;&gt;&lt;b&gt;&lt;span style=&quot;font-size:30px;line-height:30px;&quot;&gt;Contact Us&lt;br soft&gt;&lt;/span&gt;&lt;/b&gt;&lt;/span&gt;" valign="0" align="0" bold="true" italic="false" underline="false" file="%PageAssetImpl:/contactus.html" dimension="152,30" inactiveImage="%RemappedImageAsset:/sitebuilder/clipart/buttons/sets/green_apple/inactive.png" inactiveButton="%ImageAssetImpl:/sitebuilder/images/navbar-1-inactive-40356.png" activeImage="%RemappedImageAsset:/sitebuilder/clipart/buttons/sets/green_apple/active.png" activeButton="%ImageAssetImpl:/sitebuilder/images/navbar-1-active-40372.png" altText=""  insets="0,0,0,0"></page>
<page name="&lt;span class=&quot;text&quot;&gt;&lt;b&gt;&lt;span style=&quot;font-size:30px;line-height:30px;&quot;&gt;Menu&lt;br soft&gt;&lt;/span&gt;&lt;/b&gt;&lt;/span&gt;" valign="0" align="0" bold="true" italic="false" underline="false" file="%PageAssetImpl:/services.html" dimension="124,30" inactiveImage="%RemappedImageAsset:/sitebuilder/clipart/buttons/sets/green_apple/inactive.png" inactiveButton="%ImageAssetImpl:/sitebuilder/images/navbar-2-inactive-40403.png" activeImage="%RemappedImageAsset:/sitebuilder/clipart/buttons/sets/green_apple/active.png" activeButton="%ImageAssetImpl:/sitebuilder/images/navbar-2-active-40403.png" altText=""  insets="0,0,0,0"></page>
</navbar>
